{
	"class" : {
		 },
	"instance" : {
		"fillExpressions:" : "dto 1/8/2022 00:00",
		"initialize" : "dto 1/7/2022 23:54",
		"open" : "dto 1/8/2022 05:57",
		"saveExpressions" : "dto 1/8/2022 05:57",
		"ui" : "dto 1/7/2022 17:37" } }
